10 CAR - Règles de consolidation et d’audit – Aires protégées de Madagascar : modèle de données dynamique
…
Voir le code

cat("  PAs baseline only:", length(wdpaids_without_amendments), "\n")

  PAs baseline only: 100 

Voir le code

dynamic_wdpa_full |>
  st_drop_geometry() |>
  count(amendment_source) |>
  print()

# A tibble: 31 × 2
   amendment_source                              n
   <chr>                                     <int>
 1 MDG-10634-2015-boundary_modification-001      1
 2 MDG-1299-2015-boundary_modification-001       2
 3 MDG-166880-NODATE-secondary_zoning-001        2
 4 MDG-2303-2015-boundary_modification-001       3
 5 MDG-2307-2015-boundary_modification-001       2
 6 MDG-2311-2011-boundary_modification-001       2
 7 MDG-2314-2015-boundary_modification-001       2
 8 MDG-303700-2015-boundary_modification-001     1
 9 MDG-303702-2011-boundary_modification-001     1
10 MDG-352251-NODATE-secondary_zoning-001        2
# ℹ 21 more rows
…
